<?xml version="1.0" encoding="UTF-8"?>
<CustomTab xmlns="http://soap.sforce.com/2006/04/metadata">
    <label>Order Intake</label>
    <mobileReady>false</mobileReady>
    <motif>Custom39: Telescope</motif>
    <page>OSM_SearchPage</page>
</CustomTab>
