<?xml version="1.0" encoding="UTF-8"?>
<CustomTab xmlns="http://soap.sforce.com/2006/04/metadata">
    <customObject>true</customObject>
    <description>Sprint 35</description>
    <mobileReady>false</mobileReady>
    <motif>Custom80: Motorcycle</motif>
</CustomTab>
