<?xml version="1.0" encoding="UTF-8"?>
<CustomTab xmlns="http://soap.sforce.com/2006/04/metadata">
    <customObject>true</customObject>
    <description>User Story 12030:Sprint 10 Config Guide Updates - Work Order</description>
    <mobileReady>false</mobileReady>
    <motif>Custom90: Scales</motif>
</CustomTab>
